{
  "SCRIPT_RUNTIME_DIR": "C:/tools",
  "SCREENCAP_SAVE_FILE": "C:\\Users\\Siim\\Downloads\\screenshot.png",
  "CLEAR_STOP_APPS": {
	"gdd": "com.sentab.gdd.launcher",
	"widgets": "com.sentab",
	"updater": "com.sentab.updater"
  },
  "START_APPS": {
	"gdd": "com.sentab.gdd.launcher/.Launcher2",
	"widgets": "com.sentab/.activity.BlankActivity",
	"updater": "com.sentab.updater/.activity.MainActivity"
  },
  "UNINSTALL_APPS": [
	"com.sentab",
	"com.sentab.gdd.launcher",
	"com.sentab.callclient",
	"com.sentab.rid.launcher",
	"com.sentab.updater"
  ]
}